{
  "project_info": {
    "project_number": "995969615736",
    "firebase_url": "https://app-aula-dev-default-rtdb.firebaseio.com",
    "project_id": "app-aula-dev",
    "storage_bucket": "app-aula-dev.appspot.com"
  },
  "client": [
    {
      "client_info": {
        "mobilesdk_app_id": "1:995969615736:android:77833884927c5485982a8d",
        "android_client_info": {
          "package_name": "app.aula.dev"
        }
      },
      "oauth_client": [
        {
          "client_id": "995969615736-sp5hds9iffc1aq4tbjabs4a9e2krn290.apps.googleusercontent.com",
          "client_type": 3
        }
      ],
      "api_key": [
        {
          "current_key": "AIzaSyA5QbLDHBLrWDMsgdNCC_odia9T6PMxM1o"
        }
      ],
      "services": {
        "appinvite_service": {
          "other_platform_oauth_client": [
            {
              "client_id": "995969615736-sp5hds9iffc1aq4tbjabs4a9e2krn290.apps.googleusercontent.com",
              "client_type": 3
            },
            {
              "client_id": "995969615736-7v95khild41rodm3lr38e9e5v374b17k.apps.googleusercontent.com",
              "client_type": 2,
              "ios_info": {
                "bundle_id": "com.reactnativeapp"
              }
            }
          ]
        }
      }
    },
    {
      "client_info": {
        "mobilesdk_app_id": "1:995969615736:android:4c8444a18b3c7616982a8d",
        "android_client_info": {
          "package_name": "com.unimed.uniapp1"
        }
      },
      "oauth_client": [
        {
          "client_id": "995969615736-sp5hds9iffc1aq4tbjabs4a9e2krn290.apps.googleusercontent.com",
          "client_type": 3
        }
      ],
      "api_key": [
        {
          "current_key": "AIzaSyA5QbLDHBLrWDMsgdNCC_odia9T6PMxM1o"
        }
      ],
      "services": {
        "appinvite_service": {
          "other_platform_oauth_client": [
            {
              "client_id": "995969615736-sp5hds9iffc1aq4tbjabs4a9e2krn290.apps.googleusercontent.com",
              "client_type": 3
            },
            {
              "client_id": "995969615736-7v95khild41rodm3lr38e9e5v374b17k.apps.googleusercontent.com",
              "client_type": 2,
              "ios_info": {
                "bundle_id": "com.reactnativeapp"
              }
            }
          ]
        }
      }
    }
  ],
  "configuration_version": "1"
}